{
  "query": "i want to open concur",
  "topScoringIntent": {
    "intent": "Start External Application",
    "score": 0.7601006
  },
  "intents": [
    {
      "intent": "Start External Application",
      "score": 0.7601006
    },
    {
      "intent": "Ask DBot",
      "score": 0.0391411558
    },
    {
      "intent": "Navigate",
      "score": 0.0211912747
    },
    {
      "intent": "Create Reminder",
      "score": 0.0154566513
    },
    {
      "intent": "None",
      "score": 0.005819108
    }
  ],
  "entities": [
    {
      "entity": "concur",
      "type": "Application",
      "startIndex": 15,
      "endIndex": 20,
      "resolution": {
        "values": [
          "Concur"
        ]
      }
    }
  ]
}